{
	"comments": [
		"Bot Config"
	],
	"settings": {
		"cmdPrefix": ".",
		"lang": "en_US"
	},
	"permissions": {
		"command.ping": {
			"users": [
				"*"
			]
		},
		"command.profile": {
			"users": [
				"*"
			]
		},
		"command.userinfo": {
			"users": [
				"*"
			]
		},
		"command.serverinfo": {
			"users": [
				"*"
			]
		},
		"command.restart": {
			"users": [
				"ndlpPLbd"
			]
		},
		"command.serverregion": {
			"users": [
				"*"
			]
		},
		"command.play" : {
			"users": [
				"*"
			]
		},
		"command.skip" : {
			"users": [
				"*"
			]
		},
		"command.stop" : {
			"users": [
				"*"
			]
		},
		"command.queue" : {
			"users": [
				"*"
			]
		},
		"command.pause" : {
			"users": [
				"*"
			]
		},
		"command.resume" : {
			"users": [
				"*"
			]
		},
		"command.repeat" : {
			"users": [
				"*"
			]
		},
		"command.volume" : {
			"users": [
				"*"
			]
		},
		"command.playing" : {
			"users": [
				"*"
			]
		},
		"command.debugplay": {
			"users": [
				"ndlpPLbd"
			]
		},
		"command.checkpermission": {
			"users": [
				"ndlpPLbd"
			]
		},
		"command.help": {
			"users": [
				"*"
			]
		}
	}
}
